Project 1: Exploratory Data Analysis
…
51

2.5

33.68122

4.9

13

#Arranging by NCD Mortality Rate
proj %>% arrange(-(NCD_mortality_rate))

## # A tibble: 543 x 11
##    Country sex   NCD_mortality_r… Status Life.expectancy   BMI   GDP Schooling
##    <fct>   <chr>            <dbl> <fct>            <dbl> <dbl> <dbl>     <dbl>
##  1 Kazakh… Male             1062. Devel…            72    53.1  160.      15  
##  2 Mongol… Male             1057. Devel…            68.8  52.7 3944.      14.8
##  3 Republ… Male             1030. Devel…            72.1  53.4   NA       NA  
##  4 Turkme… Male             1029. Devel…            66.3  48.6 6433.      10.8
##  5 Egypt   Male             1005. Devel…            79    61.1   NA       13.1
##  6 Sierra… Fema…            1001. Devel…            51    24.4  588.       9.5
##  7 Fiji    Male              990. Devel…            69.9  62.7 4922.      15.3
##  8 Kyrgyz… Male              980. Devel…            71.1  44.9   NA       13  
##  9 Sierra… Both…             967. Devel…            51    24.4  588.       9.5
## 10 Kiriba… Male              965. Devel…            66.3  77.6 1424.      11.9
## # … with 533 more rows, and 3 more variables: Service_Coverage_Ranking <fct>,
## #   UHC_SCI_NCD <int>, BMI_Ranking <chr>

proj %>% arrange(NCD_mortality_rate)

## # A tibble: 543 x 11
##    Country sex   NCD_mortality_r… Status Life.expectancy   BMI    GDP Schooling
##    <fct>   <chr>            <dbl> <fct>            <dbl> <dbl>  <dbl>     <dbl>
##  1 Japan   Fema…             181  Devel…            83.7  29   34474.      15.3
##  2 Republ… Fema…             204. Devel…            82.3  31.7    NA       NA  
##  3 Singap… Fema…             210. Devel…            83.1  33.2 53630.      15.4
##  4 France  Fema…             226. Devel…            82.4  62.5 36527.      16.3
##  5 Spain   Fema…             232. Devel…            82.8  66.6 25684.      17.7
##  6 Switze… Fema…             242. Devel…            83.4  57.4  8990.      16  
##  7 Japan   Both…             245. Devel…            83.7  29   34474.      15.3
##  8 Luxemb… Fema…             245. Devel…            82    61.3  1200.      13.9
##  9 Portug… Fema…             251. Devel…            81.1  61.6  1923.      16.6
## 10 Austra… Fema…             252. Devel…            82.8  66.6 56554.      20.4
## # … with 533 more rows, and 3 more variables: Service_Coverage_Ranking <fct>,
## #   UHC_SCI_NCD <int>, BMI_Ranking <chr>
…
proj %>% filter(BMI_Ranking=="Underweight") %>% summarize(mean(NCD_mortality_rate))

## # A tibble: 1 x 1
##   `mean(NCD_mortality_rate)`
##                        <dbl>
## 1                       564.

#
proj %>%  select(Country, NCD_mortality_rate, Life.expectancy, Schooling) %>% arrange(Schooling)

## # A tibble: 543 x 4
##    Country     NCD_mortality_rate Life.expectancy Schooling
##    <fct>                    <dbl>           <dbl>     <dbl>
##  1 South Sudan               559             57.3       4.9
##  2 South Sudan               584             57.3       4.9
##  3 South Sudan               536             57.3       4.9
##  4 Eritrea                   659.            64.7       5  
##  5 Eritrea                   727.            64.7       5  
##  6 Eritrea                   601.            64.7       5  
##  7 Niger                     669.            61.8       5.4
##  8 Niger                     686.            61.8       5.4
##  9 Niger                     653.            61.8       5.4
## 10 Djibouti                  605.            63.5       6.3
## # … with 533 more rows
…
4. Visualizing

#Correlation heatmap

#First, I need to tidy the correlation matrix
tidycor <- cormat %>% as.data.frame %>% rownames_to_column("var1") %>%
pivot_longer(-1,names_to="var2",values_to="correlation")
tidycor

## # A tibble: 36 x 3
##    var1               var2               correlation
##    <chr>              <chr>                    <dbl>
##  1 NCD_mortality_rate NCD_mortality_rate       1    
##  2 NCD_mortality_rate Life.expectancy         -0.645
##  3 NCD_mortality_rate BMI                     -0.281
##  4 NCD_mortality_rate GDP                     -0.414
##  5 NCD_mortality_rate Schooling               -0.540
##  6 NCD_mortality_rate UHC_SCI_NCD             -0.280
##  7 Life.expectancy    NCD_mortality_rate      -0.645
##  8 Life.expectancy    Life.expectancy          1    
##  9 Life.expectancy    BMI                      0.526
## 10 Life.expectancy    GDP                      0.455
## # … with 26 more rows
…
